    PID USER      PR  NI    VIRT    RES    SHR S  %CPU  %MEM     TIME+ COMMAND
   4113 khalil    20   0 4020900 542524 190304 S  52.9   6.8 100:44.72 firefox
   6839 khalil    20   0 3158224 445472 198392 S  29.4   5.6  22:12.86 Web Con+
   1759 root      20   0  533924  78720  56732 R  17.6   1.0  45:05.49 Xorg
  12809 khalil    20   0   24.8g 306052  58840 R  17.6   3.8  20:08.35 Discord
  23683 khalil    20   0   21896   3892   3176 R  11.8   0.0   0:00.03 top
